element_base/lab/3lab/src/not right/d_trig/simulation/qsim/d_trig.msim.vcd
$comment
	File created using the following command:
		vcd file d_trig.msim.vcd -direction
$end
$date
	Mon Nov 11 20:57:42 2024
$end
$version
	ModelSim Version 10.1d
$end
$timescale
	1ps
$end
$scope module d_trig_vlg_vec_tst $end
$var reg 1 ! clk $end
$var wire 1 " C $end
$var wire 1 # D $end
$var wire 1 $ Q_dff $end
$var wire 1 % Q_dlanch $end
$var wire 1 & X [3] $end
$var wire 1 ' X [2] $end
$var wire 1 ( X [1] $end
$var wire 1 ) X [0] $end
$var wire 1 * sampler $end
$scope module i1 $end
$var wire 1 + gnd $end
$var wire 1 , vcc $end
$var wire 1 - unknown $end
$var tri1 1 . devclrn $end
$var tri1 1 / devpor $end
$var tri1 1 0 devoe $end
$var wire 1 1 clk~combout $end
$var wire 1 2 clk~clkctrl_outclk $end
$var wire 1 3 inst3|LPM_COUNTER_component|auto_generated|counter_comb_bita0~combout $end
$var wire 1 4 inst3|LPM_COUNTER_component|auto_generated|counter_comb_bita0~COUT $end
$var wire 1 5 inst3|LPM_COUNTER_component|auto_generated|counter_comb_bita1~combout $end
$var wire 1 6 inst3|LPM_COUNTER_component|auto_generated|counter_comb_bita1~COUT $end
$var wire 1 7 inst3|LPM_COUNTER_component|auto_generated|counter_comb_bita2~COUT $end
$var wire 1 8 inst3|LPM_COUNTER_component|auto_generated|counter_comb_bita3~combout $end
$var wire 1 9 inst3|LPM_COUNTER_component|auto_generated|counter_comb_bita2~combout $end
$var wire 1 : inst4~0_combout $end
$var wire 1 ; inst3|LPM_COUNTER_component|auto_generated|safe_q[1]~clkctrl_outclk $end
$var wire 1 < inst4~1_combout $end
$var wire 1 = inst2~combout $end
$var wire 1 > inst1~regout $end
$var wire 1 ? inst3|LPM_COUNTER_component|auto_generated|safe_q [3] $end
$var wire 1 @ inst3|LPM_COUNTER_component|auto_generated|safe_q [2] $end
$var wire 1 A inst3|LPM_COUNTER_component|auto_generated|safe_q [1] $end
$var wire 1 B inst3|LPM_COUNTER_component|auto_generated|safe_q [0] $end
$upscope $end
$upscope $end
$enddefinitions $end
#0
$dumpvars
0!
0"
0#
0$
x%
0)
0(
0'
0&
x*
0+
1,
x-
1.
1/
10
01
02
13
04
05
16
07
08
09
0:
0;
1<
x=
0>
0B
0A
0@
0?
$end
#10000
1!
11
12
0*
1B
1:
14
03
1)
15
1#
#20000
0!
01
02
1*
#30000
1!
11
12
0*
1A
0B
1;
06
05
04
13
1=
1(
1"
0)
19
16
15
1%
09
1>
1$
#40000
0!
01
02
1*
#50000
1!
11
12
0*
1B
14
03
1)
06
05
19
#60000
0!
01
02
1*
#70000
1!
11
12
0*
1@
0A
0B
0;
0<
0:
17
09
16
15
04
13
1'
0(
0"
0)
18
07
19
05
0#
08
#80000
0!
01
02
1*
#90000
1!
11
12
0*
1B
1<
14
03
1)
15
#100000
0!
01
02
1*
#110000
1!
11
12
0*
1A
0B
1;
06
05
0<
04
13
1(
1"
0)
17
09
0=
16
15
18
07
19
0%
08
0>
0$
#120000
0!
01
02
1*
#130000
1!
11
12
0*
1B
1<
1:
14
03
1)
1=
06
05
1#
17
09
1%
18
#140000
0!
01
02
1*
#150000
1!
11
12
0*
0@
1?
0A
0B
0;
0:
07
19
08
16
15
04
13
0'
1&
0(
0"
0)
18
09
05
0#
#160000
0!
01
02
1*
#170000
1!
11
12
0*
1B
0<
1:
14
03
1)
15
1#
#180000
0!
01
02
1*
#190000
1!
11
12
0*
1A
0B
1;
06
05
1<
04
13
0=
1(
1"
0)
19
1=
16
15
0%
09
1%
1>
1$
#200000
0!
01
02
1*
#210000
1!
11
12
0*
1B
0<
0:
14
03
1)
0=
06
05
0#
19
0%
#220000
0!
01
02
1*
#230000
1!
11
12
0*
1@
0A
0B
0;
17
09
16
15
04
13
1'
0(
0"
0)
08
07
19
05
18
#240000
0!
01
02
1*
#250000
1!
11
12
0*
1B
1<
14
03
1)
15
#260000
0!
01
02
1*
#270000
1!
11
12
0*
1A
0B
1;
06
05
0<
04
13
1=
1(
1"
0)
17
09
0=
16
15
1%
08
07
19
0%
18
0>
0$
#280000
0!
01
02
1*
#290000
1!
11
12
0*
1B
1<
1:
14
03
1)
1=
06
05
1#
17
09
1%
08
#300000
0!
01
02
1*
#310000
1!
11
12
0*
0@
0?
0A
0B
0;
0:
07
19
18
16
15
04
13
0'
0&
0(
0"
0)
08
09
05
0#
#320000
0!
01
02
1*
