element_base/lab/4lab/src/not right/lab_4_multireg/simulation/qsim/lab_4_multireg.msim.vcd
$comment
	File created using the following command:
		vcd file lab_4_multireg.msim.vcd -direction
$end
$date
	Fri Nov 15 20:04:58 2024
$end
$version
	ModelSim Version 10.1d
$end
$timescale
	1ps
$end
$scope module lab_4_multireg_vlg_vec_tst $end
$var reg 1 ! clk $end
$var reg 4 " D [0:3] $end
$var reg 2 # S [1:0] $end
$var wire 1 $ Q0 $end
$var wire 1 % Q1 $end
$var wire 1 & Q2 $end
$var wire 1 ' Q3 $end
$var wire 1 ( sampler $end
$scope module i1 $end
$var wire 1 ) gnd $end
$var wire 1 * vcc $end
$var wire 1 + unknown $end
$var tri1 1 , devclrn $end
$var tri1 1 - devpor $end
$var tri1 1 . devoe $end
$var wire 1 / clk~combout $end
$var wire 1 0 clk~clkctrl_outclk $end
$var wire 1 1 inst1~0_combout $end
$var wire 1 2 inst5|LPM_MUX_component|auto_generated|result_node[0]~0_combout $end
$var wire 1 3 inst1~regout $end
$var wire 1 4 inst2~0_combout $end
$var wire 1 5 inst6|LPM_MUX_component|auto_generated|result_node[0]~0_combout $end
$var wire 1 6 inst2~regout $end
$var wire 1 7 inst7|LPM_MUX_component|auto_generated|result_node[0]~0_combout $end
$var wire 1 8 inst3~regout $end
$var wire 1 9 inst4|LPM_MUX_component|auto_generated|result_node[0]~0_combout $end
$var wire 1 : inst4|LPM_MUX_component|auto_generated|result_node[0]~1_combout $end
$var wire 1 ; inst~regout $end
$var wire 1 < S~combout [1] $end
$var wire 1 = S~combout [0] $end
$var wire 1 > D~combout [0] $end
$var wire 1 ? D~combout [1] $end
$var wire 1 @ D~combout [2] $end
$var wire 1 A D~combout [3] $end
$upscope $end
$upscope $end
$enddefinitions $end
#0
$dumpvars
0!
b0 "
b0 #
0$
0%
0&
0'
x(
0)
1*
x+
1,
1-
1.
0/
00
01
02
03
04
05
06
07
08
09
0:
0;
0=
0<
0A
0@
0?
0>
$end
#5000
1!
1/
10
0(
#10000
b1000 "
0!
1>
0/
00
1(
19
1:
#15000
1!
1/
10
0(
1;
11
1$
#20000
b1100 "
b100 "
0!
1?
0>
0/
00
1(
12
09
0:
#25000
1!
1/
10
0(
0;
13
01
14
0$
1%
#30000
b1100 "
0!
1>
0/
00
1(
19
1:
#35000
1!
1/
10
0(
1;
11
1$
#40000
b1110 "
b1010 "
b10 "
0!
1@
0?
0>
0/
00
1(
15
02
09
0:
#45000
1!
1/
10
0(
0;
16
03
01
04
0$
1&
0%
#50000
b1010 "
0!
1>
0/
00
1(
19
1:
#55000
1!
1/
10
0(
1;
11
1$
#60000
b1110 "
b110 "
0!
1?
0>
0/
00
1(
12
09
0:
#65000
1!
1/
10
0(
0;
13
01
14
0$
1%
#70000
b1110 "
0!
1>
0/
00
1(
19
1:
#75000
1!
1/
10
0(
1;
11
1$
#80000
b1111 "
b1101 "
b1001 "
b1 "
0!
1A
0@
0?
0>
0/
00
1(
17
05
02
09
0:
#85000
1!
1/
10
0(
0;
18
06
03
01
04
0$
1'
0&
0%
#90000
b1001 "
0!
1>
0/
00
1(
19
1:
#95000
1!
1/
10
0(
1;
11
1$
#100000
b1101 "
b101 "
0!
1?
0>
0/
00
1(
12
09
0:
#105000
1!
1/
10
0(
0;
13
01
14
0$
1%
#110000
b1101 "
0!
1>
0/
00
1(
19
1:
#115000
1!
1/
10
0(
1;
11
1$
#120000
b1111 "
b1011 "
b11 "
0!
1@
0?
0>
0/
00
1(
15
02
09
0:
#125000
1!
1/
10
0(
0;
16
03
01
04
0$
1&
0%
#130000
b1011 "
0!
1>
0/
00
1(
19
1:
#135000
1!
1/
10
0(
1;
11
1$
#140000
b1111 "
b111 "
0!
1?
0>
0/
00
1(
12
09
0:
#145000
1!
1/
10
0(
0;
13
01
14
0$
1%
#150000
b1111 "
0!
1>
0/
00
1(
19
1:
#155000
1!
1/
10
0(
1;
11
1$
#160000
b1110 "
b1100 "
b1000 "
b0 "
0!
0A
0@
0?
0>
0/
00
1(
07
05
02
09
0:
#165000
1!
1/
10
0(
0;
08
06
03
01
04
0$
0'
0&
0%
#170000
b1000 "
0!
1>
0/
00
1(
19
1:
#175000
1!
1/
10
0(
1;
11
1$
#180000
b1100 "
b100 "
0!
1?
0>
0/
00
1(
12
09
0:
#185000
1!
1/
10
0(
0;
13
01
14
0$
1%
#190000
b1100 "
0!
1>
0/
00
1(
19
1:
#195000
1!
1/
10
0(
1;
11
1$
#200000
b1 #
b1110 "
b1010 "
b10 "
0!
1@
0?
0>
1=
0/
00
1(
15
17
04
01
#205000
1!
1/
10
0(
18
16
14
11
1'
1&
#210000
b1010 "
0!
1>
0/
00
1(
#215000
1!
1/
10
0(
#220000
b1110 "
b110 "
0!
1?
0>
0/
00
1(
#225000
1!
1/
10
0(
#230000
b1110 "
0!
1>
0/
00
1(
#235000
1!
1/
10
0(
#240000
b1111 "
b1101 "
b1001 "
b1 "
0!
1A
0@
0?
0>
0/
00
1(
#245000
1!
1/
10
0(
#250000
b1001 "
0!
1>
0/
00
1(
#255000
1!
1/
10
0(
#260000
b0 #
b1101 "
b101 "
0!
1?
0>
0=
0/
00
1(
09
05
0:
#265000
1!
1/
10
0(
0;
06
01
0$
0&
#270000
b1101 "
0!
1>
0/
00
1(
19
1:
#275000
1!
1/
10
0(
1;
11
1$
#280000
b1111 "
b1011 "
b11 "
0!
1@
0?
0>
0/
00
1(
15
02
09
0:
#285000
1!
1/
10
0(
0;
16
03
01
04
0$
1&
0%
#290000
b1011 "
0!
1>
0/
00
1(
19
1:
#295000
1!
1/
10
0(
1;
11
1$
#300000
b1111 "
b111 "
0!
1?
0>
0/
00
1(
12
09
0:
#305000
1!
1/
10
0(
0;
13
01
14
0$
1%
#310000
b1111 "
0!
1>
0/
00
1(
19
1:
#315000
1!
1/
10
0(
1;
11
1$
#320000
b1110 "
b1100 "
b1000 "
b0 "
0!
0A
0@
0?
0>
0/
00
1(
07
05
02
09
0:
#325000
1!
1/
10
0(
0;
08
06
03
01
04
0$
0'
0&
0%
#330000
b1000 "
0!
1>
0/
00
1(
19
1:
#335000
1!
1/
10
0(
1;
11
1$
#340000
b1100 "
b100 "
0!
1?
0>
0/
00
1(
12
09
0:
#345000
1!
1/
10
0(
0;
13
01
14
0$
1%
#350000
b1100 "
0!
1>
0/
00
1(
19
1:
#355000
1!
1/
10
0(
1;
11
1$
#360000
b10 #
b1110 "
b1010 "
b10 "
0!
1@
0?
0>
1<
0/
00
1(
15
02
09
0:
#365000
1!
1/
10
0(
0;
16
01
17
0$
1&
#370000
b1010 "
0!
1>
0/
00
1(
#375000
1!
1/
10
0(
18
03
1:
04
1'
0%
#380000
b1110 "
b110 "
0!
1?
0>
0/
00
1(
12
#385000
1!
1/
10
0(
1;
06
11
07
1$
0&
#390000
b1110 "
0!
1>
0/
00
1(
#395000
1!
1/
10
0(
08
13
0:
14
0'
1%
#400000
b1111 "
b1101 "
b1001 "
b1 "
0!
1A
0@
0?
0>
0/
00
1(
05
02
#405000
1!
1/
10
0(
0;
16
01
17
0$
1&
#410000
b1001 "
0!
1>
0/
00
1(
#415000
1!
1/
10
0(
18
03
1:
04
1'
0%
#420000
b1101 "
b101 "
0!
1?
0>
0/
00
1(
12
#425000
1!
1/
10
0(
1;
06
11
07
1$
0&
#430000
b1101 "
0!
1>
0/
00
1(
#435000
1!
1/
10
0(
08
13
0:
14
0'
1%
#440000
b11 #
b1111 "
b1011 "
b11 "
0!
1@
0?
0>
1=
0/
00
1(
15
19
17
04
01
1:
#445000
1!
1/
10
0(
18
03
14
09
1'
0%
0:
#450000
b1011 "
0!
1>
0/
00
1(
#455000
1!
1/
10
0(
0;
16
11
0$
1&
#460000
b1111 "
b111 "
0!
1?
0>
0/
00
1(
#465000
1!
1/
10
0(
13
19
1%
1:
#470000
b1111 "
0!
1>
0/
00
1(
#475000
1!
1/
10
0(
1;
1$
#480000
b1110 "
b1100 "
b1000 "
b0 "
0!
0A
0@
0?
0>
0/
00
1(
#485000
1!
1/
10
0(
#490000
b1000 "
0!
1>
0/
00
1(
#495000
1!
1/
10
0(
#500000
b1100 "
b100 "
0!
1?
0>
0/
00
1(
#505000
1!
1/
10
0(
#510000
b1 #
b0 #
b1100 "
0!
1>
0=
0<
0/
00
1(
07
05
#515000
1!
1/
10
0(
08
06
0'
0&
#520000
b1110 "
b1010 "
b10 "
0!
1@
0?
0>
0/
00
1(
15
02
09
0:
#525000
1!
1/
10
0(
0;
16
03
01
04
0$
1&
0%
#530000
b1010 "
0!
1>
0/
00
1(
19
1:
#535000
1!
1/
10
0(
1;
11
1$
#540000
b1110 "
b110 "
0!
1?
0>
0/
00
1(
12
09
0:
#545000
1!
1/
10
0(
0;
13
01
14
0$
1%
#550000
b1110 "
0!
1>
0/
00
1(
19
1:
#555000
1!
1/
10
0(
1;
11
1$
