element_base/lab/3lab/src/right/jk_trig/simulation/qsim/jk_trig.msim.vcd
$comment
	File created using the following command:
		vcd file jk_trig.msim.vcd -direction
$end
$date
	Thu Jan 16 13:57:42 2025
$end
$version
	ModelSim Version 10.1d
$end
$timescale
	1ps
$end
$scope module jk_trig_vlg_vec_tst $end
$var reg 1 ! clk $end
$var wire 1 " C $end
$var wire 1 # J $end
$var wire 1 $ K $end
$var wire 1 % Q $end
$var wire 1 & QQ $end
$var wire 1 ' X [3] $end
$var wire 1 ( X [2] $end
$var wire 1 ) X [1] $end
$var wire 1 * X [0] $end
$var wire 1 + sampler $end
$scope module i1 $end
$var wire 1 , gnd $end
$var wire 1 - vcc $end
$var wire 1 . unknown $end
$var tri1 1 / devclrn $end
$var tri1 1 0 devpor $end
$var tri1 1 1 devoe $end
$var wire 1 2 C~output_o $end
$var wire 1 3 J~output_o $end
$var wire 1 4 K~output_o $end
$var wire 1 5 Q~output_o $end
$var wire 1 6 QQ~output_o $end
$var wire 1 7 X[3]~output_o $end
$var wire 1 8 X[2]~output_o $end
$var wire 1 9 X[1]~output_o $end
$var wire 1 : X[0]~output_o $end
$var wire 1 ; clk~input_o $end
$var wire 1 < clk~inputclkctrl_outclk $end
$var wire 1 = inst5|LPM_COUNTER_component|auto_generated|counter_comb_bita0~combout $end
$var wire 1 > inst5|LPM_COUNTER_component|auto_generated|counter_comb_bita0~COUT $end
$var wire 1 ? inst5|LPM_COUNTER_component|auto_generated|counter_comb_bita1~combout $end
$var wire 1 @ inst5|LPM_COUNTER_component|auto_generated|counter_comb_bita1~COUT $end
$var wire 1 A inst5|LPM_COUNTER_component|auto_generated|counter_comb_bita2~combout $end
$var wire 1 B inst5|LPM_COUNTER_component|auto_generated|counter_comb_bita2~COUT $end
$var wire 1 C inst5|LPM_COUNTER_component|auto_generated|counter_comb_bita3~combout $end
$var wire 1 D inst65~0_combout $end
$var wire 1 E inst54~0_combout $end
$var wire 1 F inst4~0_combout $end
$var wire 1 G inst4~q $end
$var wire 1 H inst5|LPM_COUNTER_component|auto_generated|counter_reg_bit [3] $end
$var wire 1 I inst5|LPM_COUNTER_component|auto_generated|counter_reg_bit [2] $end
$var wire 1 J inst5|LPM_COUNTER_component|auto_generated|counter_reg_bit [1] $end
$var wire 1 K inst5|LPM_COUNTER_component|auto_generated|counter_reg_bit [0] $end
$upscope $end
$upscope $end
$enddefinitions $end
#0
$dumpvars
0!
0"
0#
0$
0%
0&
0*
0)
0(
0'
x+
0,
1-
x.
1/
10
11
02
03
04
05
06
07
08
09
0:
0;
0<
1=
0>
0?
1@
0A
0B
0C
0D
0E
0F
0G
0K
0J
0I
0H
$end
#20000
1!
1;
1<
0+
1K
1>
0=
1:
1*
1D
1?
1F
13
1#
#40000
0!
0;
0<
1+
#60000
1!
1;
1<
0+
1J
0K
0@
0?
0>
1=
19
12
0:
1)
1"
0*
1A
1@
1?
0A
1G
16
15
1&
1%
#80000
0!
0;
0<
1+
#100000
1!
1;
1<
0+
1K
1>
0=
1:
1*
0@
0?
1A
#120000
0!
0;
0<
1+
#140000
1!
1;
1<
0+
1I
0J
0K
1B
0A
1@
1?
0>
1=
18
09
02
0:
1(
0)
0"
0*
0D
1C
0B
1A
0?
03
0#
0C
#160000
0!
0;
0<
1+
#180000
1!
1;
1<
0+
1K
1>
0=
1:
1*
1E
1?
0F
14
1$
#200000
0!
0;
0<
1+
#220000
1!
1;
1<
0+
1J
0K
0@
0?
0>
1=
19
12
0:
1)
1"
0*
1B
0A
1@
1?
1C
0B
1A
0C
0G
06
05
0&
0%
#240000
0!
0;
0<
1+
#260000
1!
1;
1<
0+
1K
1>
0=
1:
1*
0E
0@
0?
04
0$
1B
0A
1C
#280000
0!
0;
0<
1+
#300000
1!
1;
1<
0+
1H
0I
0J
0K
0C
0B
1A
1@
1?
0>
1=
17
08
09
02
0:
1'
0(
0)
0"
0*
1D
1C
0A
0?
1F
13
1#
#320000
0!
0;
0<
1+
#340000
1!
1;
1<
0+
1K
1>
0=
1:
1*
1E
1?
14
1$
#360000
0!
0;
0<
1+
#380000
1!
1;
1<
0+
1J
0K
0@
0?
0>
1=
19
12
0:
1)
1"
0*
1A
1@
1?
0A
1G
0F
16
15
1&
1%
#400000
0!
0;
0<
1+
#420000
1!
1;
1<
0+
1K
1>
0=
1:
1*
0D
0@
0?
03
0#
1A
#440000
0!
0;
0<
1+
#460000
1!
1;
1<
0+
1I
0J
0K
1B
0A
1@
1?
0>
1=
18
09
02
0:
1(
0)
0"
0*
0E
0C
0B
1A
0?
1F
04
0$
1C
#480000
0!
0;
0<
1+
#500000
1!
1;
1<
0+
1K
1>
0=
1:
1*
1E
1D
1?
0F
14
13
1$
1#
#520000
0!
0;
0<
1+
#540000
1!
1;
1<
0+
1J
0K
0@
0?
0>
1=
19
12
0:
1)
1"
0*
1B
0A
1@
1?
0C
0B
1A
1C
0G
1F
06
05
0&
0%
#560000
0!
0;
0<
1+
#580000
1!
1;
1<
0+
1K
1>
0=
1:
1*
0D
0@
0?
0F
03
0#
1B
0A
0C
#600000
0!
0;
0<
1+
#620000
1!
1;
1<
0+
0H
0I
0J
0K
1C
0B
1A
1@
1?
0>
1=
07
08
09
02
0:
0'
0(
0)
0"
0*
0E
0C
0A
0?
04
0$
#640000
0!
0;
0<
1+
#660000
1!
1;
1<
0+
1K
1>
0=
1:
1*
1D
1?
1F
13
1#
#680000
0!
0;
0<
1+
#700000
1!
1;
1<
0+
1J
0K
0@
0?
0>
1=
19
12
0:
1)
1"
0*
1A
1@
1?
0A
1G
16
15
1&
1%
#720000
0!
0;
0<
1+
#740000
1!
1;
1<
0+
1K
1>
0=
1:
1*
0@
0?
1A
#760000
0!
0;
0<
1+
#780000
1!
1;
1<
0+
1I
0J
0K
1B
0A
1@
1?
0>
1=
18
09
02
0:
1(
0)
0"
0*
0D
1C
0B
1A
0?
03
0#
0C
#800000
0!
0;
0<
1+
#820000
1!
1;
1<
0+
1K
1>
0=
1:
1*
1E
1?
0F
14
1$
#840000
0!
0;
0<
1+
#860000
1!
1;
1<
0+
1J
0K
0@
0?
0>
1=
19
12
0:
1)
1"
0*
1B
0A
1@
1?
1C
0B
1A
0C
0G
06
05
0&
0%
#880000
0!
0;
0<
1+
#900000
1!
1;
1<
0+
1K
1>
0=
1:
1*
0E
0@
0?
04
0$
1B
0A
1C
#920000
0!
0;
0<
1+
#940000
1!
1;
1<
0+
1H
0I
0J
0K
0C
0B
1A
1@
1?
0>
1=
17
08
09
02
0:
1'
0(
0)
0"
0*
1D
1C
0A
0?
1F
13
1#
#960000
0!
0;
0<
1+
#980000
1!
1;
1<
0+
1K
1>
0=
1:
1*
1E
1?
14
1$
