element_base/lab/4lab/src/not right/lab4_regJK/simulation/qsim/lab4_regJK.msim.vcd
$comment
	File created using the following command:
		vcd file lab4_regJK.msim.vcd -direction
$end
$date
	Fri Nov 15 18:38:00 2024
$end
$version
	ModelSim Version 10.1d
$end
$timescale
	1ps
$end
$scope module lab4_regJK_vlg_vec_tst $end
$var reg 1 ! clk $end
$var reg 1 " D0 $end
$var reg 1 # D1 $end
$var reg 1 $ D2 $end
$var reg 1 % D3 $end
$var reg 1 & OE_L $end
$var reg 1 ' Set $end
$var wire 1 ( Q0 $end
$var wire 1 ) Q1 $end
$var wire 1 * Q2 $end
$var wire 1 + Q3 $end
$var wire 1 , sampler $end
$scope module i1 $end
$var wire 1 - gnd $end
$var wire 1 . vcc $end
$var wire 1 / unknown $end
$var tri1 1 0 devclrn $end
$var tri1 1 1 devpor $end
$var tri1 1 2 devoe $end
$var wire 1 3 clk~combout $end
$var wire 1 4 clk~clkctrl_outclk $end
$var wire 1 5 OE_L~combout $end
$var wire 1 6 D0~combout $end
$var wire 1 7 inst~0_combout $end
$var wire 1 8 Set~combout $end
$var wire 1 9 Set~clkctrl_outclk $end
$var wire 1 : inst~regout $end
$var wire 1 ; inst19~combout $end
$var wire 1 < D1~combout $end
$var wire 1 = inst1~0_combout $end
$var wire 1 > inst1~regout $end
$var wire 1 ? inst9~combout $end
$var wire 1 @ D2~combout $end
$var wire 1 A inst2~0_combout $end
$var wire 1 B inst2~regout $end
$var wire 1 C inst10~combout $end
$var wire 1 D D3~combout $end
$var wire 1 E inst3~0_combout $end
$var wire 1 F inst3~regout $end
$var wire 1 G inst11~combout $end
$upscope $end
$upscope $end
$enddefinitions $end
#0
$dumpvars
0!
0"
0#
0$
0%
0&
1'
x(
x)
x*
x+
x,
0-
1.
x/
10
11
12
03
x4
05
06
x7
18
x9
x:
x;
0<
x=
x>
x?
0@
xA
xB
xC
0D
xE
xF
xG
$end
#143
04
19
#267
0:
0>
0B
0F
#5000
1!
0,
#5824
1A
#5863
1E
#5889
17
#5991
1=
#6140
13
#6283
14
#6438
1G
#6441
1C
1?
#6607
1;
#10000
1"
0!
1,
#10590
1*
#10600
1)
#10751
1+
#10930
1(
#10965
16
#11140
03
#11283
04
#15000
1!
0,
#16140
13
#16283
14
#16854
07
#20000
1#
0"
0!
1,
#20965
06
#21005
1<
#21140
03
#21283
04
#25000
1!
0,
#26140
13
#26283
14
#26854
17
#26996
0=
#30000
0'
1"
0!
1,
#30965
16
#31130
08
#31140
03
#31273
09
#31283
04
#35000
1!
0,
#36140
13
#36283
14
#36854
07
#38088
1B
1F
#39066
0C
#39076
0G
#40000
1$
0#
0"
0!
1,
#40965
06
#41005
0<
1@
#41140
03
#41283
04
#43215
0*
#43389
0+
#45000
1!
0,
#46140
13
#46283
14
#46829
0A
#46854
17
#46996
1=
#48088
1:
1>
0B
#48893
0;
#49054
0?
#49066
1C
#50000
1"
0!
1,
#50965
16
#51140
03
#51283
04
#53213
0)
#53215
1*
#53216
0(
#55000
1!
0,
#56140
13
#56283
14
#56854
07
#58088
0:
#58893
1;
#60000
1#
0"
0!
1,
#60965
06
#61005
1<
#61140
03
#61283
04
#63216
1(
#65000
1!
0,
#66140
13
#66283
14
#66854
17
#66996
0=
#68088
1:
0>
#68893
0;
#69054
1?
#70000
1"
0!
1,
#70965
16
#71140
03
#71283
04
#73213
1)
#73216
0(
#75000
1!
0,
#76140
13
#76283
14
#76854
07
#78088
0:
#78893
1;
#80000
1%
0$
0#
0"
0!
1,
#80965
06
#80985
1D
#81005
0<
0@
#81140
03
#81283
04
#83216
1(
#85000
1!
0,
#86140
13
#86283
14
#86829
1A
#86848
0E
#86854
17
#86996
1=
#88088
1:
1>
1B
0F
#88893
0;
#89054
0?
#89066
0C
#89076
1G
#90000
1"
0!
1,
#90965
16
#91140
03
#91283
04
#93213
0)
#93215
0*
#93216
0(
#93389
1+
#95000
1!
0,
#96140
13
#96283
14
#96854
07
#98088
0:
#98893
1;
#100000
1#
0"
0!
1,
#100965
06
#101005
1<
#101140
03
#101283
04
#103216
1(
#105000
1!
0,
#106140
13
#106283
14
#106854
17
#106996
0=
#108088
1:
0>
#108893
0;
#109054
1?
#110000
1'
1"
0!
1,
#110965
16
#111130
18
#111140
03
#111273
19
#111283
04
#113048
0:
0B
#113213
1)
#113216
0(
#113853
1;
#114026
1C
#115000
1!
0,
#116140
13
#116283
14
#116854
07
#118175
1*
#118176
1(
#120000
1$
0#
0'
0"
0!
1,
#120965
06
#121005
0<
1@
#121130
08
#121140
03
#121273
09
#121283
04
#125000
1!
0,
#126140
13
#126283
14
#126829
0A
#126854
17
#126996
1=
#128088
1:
1>
#128893
0;
#129054
0?
#130000
1"
0!
1,
#130965
16
#131140
03
#131283
04
#133213
0)
#133216
0(
#135000
1!
0,
#136140
13
#136283
14
#136854
07
#138088
0:
#138893
1;
#140000
1#
0"
0!
1,
#140965
06
#141005
1<
#141140
03
#141283
04
#143216
1(
#145000
1!
0,
#146140
13
#146283
14
#146854
17
#146996
0=
#148088
1:
0>
#148893
0;
#149054
1?
#150000
1"
0!
1,
#150965
16
#151140
03
#151283
04
#153213
1)
#153216
0(
#155000
1!
0,
#156140
13
#156283
14
#156854
07
#158088
0:
#158893
1;
#160000
1&
0%
0$
0#
0"
0!
1,
#160965
06
#160985
0D
#161005
0<
0@
#161014
15
#161140
03
#161283
04
#163216
1(
#165000
1!
0,
#166140
13
#166283
14
#166829
1A
#166848
1E
#166854
17
#166996
1=
#167452
0G
#167455
0C
0?
#167621
0;
#168088
1:
1>
1B
1F
#170000
1"
0!
1,
#170965
16
#171140
03
#171283
04
#171604
0*
#171614
0)
#171765
0+
#171944
0(
#175000
1!
0,
#176140
13
#176283
14
#176854
07
#178088
0:
#180000
1#
0"
0!
1,
#180965
06
#181005
1<
#181140
03
#181283
04
#185000
1!
0,
#186140
13
#186283
14
#186854
17
#186996
0=
#188088
1:
0>
#190000
1"
0!
1,
#190965
16
#191140
03
#191283
04
#195000
1!
0,
#196140
13
#196283
14
#196854
07
#198088
0:
#200000
1$
0#
0"
0!
1,
#200965
06
#201005
0<
1@
#201140
03
#201283
04
#205000
1!
0,
#206140
13
#206283
14
#206829
0A
#206854
17
#206996
1=
#208088
1:
1>
0B
#210000
1"
0!
1,
#210965
16
#211140
03
#211283
04
#215000
1!
0,
#216140
13
#216283
14
#216854
07
#218088
0:
#220000
1#
0"
0!
1,
#220965
06
#221005
1<
#221140
03
#221283
04
#225000
1!
0,
#226140
13
#226283
14
#226854
17
#226996
0=
#228088
1:
0>
#230000
1"
0!
1,
#230965
16
#231140
03
#231283
04
#235000
1!
0,
#236140
13
#236283
14
#236854
07
#238088
0:
#240000
1'
1%
0$
0#
0"
0!
1,
#240965
06
#240985
1D
#241005
0<
0@
#241130
18
#241140
03
#241273
19
#241283
04
#243048
0F
#245000
1!
0,
#246140
13
#246283
14
#246829
1A
#246848
0E
#246854
17
#246996
1=
#250000
1"
0!
1,
#250965
16
#251140
03
#251283
04
#255000
1!
0,
#256140
13
#256283
14
#256854
07
#260000
0&
1#
0"
0!
1,
#260965
06
#261005
1<
#261014
05
#261140
03
#261283
04
#265000
1!
0,
#266140
13
#266283
14
#266854
17
#266996
0=
#267452
1G
#267455
1C
1?
#267621
1;
#270000
1"
0!
1,
#270965
16
#271140
03
#271283
04
#271604
1*
#271614
1)
#271765
1+
#271944
1(
#275000
1!
0,
#276140
13
#276283
14
#276854
07
#280000
0'
1$
0#
0"
0!
1,
#280965
06
#281005
0<
1@
#281130
08
#281140
03
#281273
09
#281283
04
#285000
1!
0,
#286140
13
#286283
14
#286829
0A
#286854
17
#286996
1=
#288088
1:
1>
#288893
0;
#289054
0?
#290000
1"
0!
1,
#290965
16
#291140
03
#291283
04
#293213
0)
#293216
0(
#295000
1!
0,
#296140
13
#296283
14
#296854
07
#298088
0:
#298893
1;
#300000
1#
0"
0!
1,
#300965
06
#301005
1<
#301140
03
#301283
04
#303216
1(
#305000
1!
0,
#306140
13
#306283
14
#306854
17
#306996
0=
#308088
1:
0>
#308893
0;
#309054
1?
#310000
1"
0!
1,
#310965
16
#311140
03
#311283
04
#313213
1)
#313216
0(
#315000
1!
0,
#316140
13
#316283
14
#316854
07
#318088
0:
#318893
1;
