element_base/lab/2lab/src/not right/lab2/simulation/qsim/lab2.msim.vcd
$comment
	File created using the following command:
		vcd file lab2.msim.vcd -direction
$end
$date
	Sat Nov 09 20:13:24 2024
$end
$version
	ModelSim Version 10.1d
$end
$timescale
	1ps
$end
$scope module lab2_vlg_vec_tst $end
$var reg 4 ! X [4:1] $end
$var wire 1 " Qut_DC $end
$var wire 1 # Qut_lr1 $end
$var wire 1 $ Qut_MUX $end
$var wire 1 % sampler $end
$scope module i1 $end
$var wire 1 & gnd $end
$var wire 1 ' vcc $end
$var wire 1 ( unknown $end
$var tri1 1 ) devclrn $end
$var tri1 1 * devpor $end
$var tri1 1 + devoe $end
$var wire 1 , inst2~0_combout $end
$var wire 1 - inst|inst5~0_combout $end
$var wire 1 . X~combout [4] $end
$var wire 1 / X~combout [3] $end
$var wire 1 0 X~combout [2] $end
$var wire 1 1 X~combout [1] $end
$upscope $end
$upscope $end
$enddefinitions $end
#0
$dumpvars
b0 !
x"
x#
x$
x%
0&
1'
x(
1)
1*
1+
x,
x-
01
00
0/
0.
$end
#5923
0-
#5924
1,
#9967
1"
#10000
b1 !
0%
#10086
1#
#10091
1$
#10985
11
#20000
b11 !
b10 !
1%
#20975
10
#20985
01
#30000
b11 !
0%
#30985
11
#37258
0,
#37263
1-
#40000
b111 !
b101 !
b100 !
1%
#40975
00
#40984
1/
#40985
01
#41301
0"
#41426
0#
#41431
0$
#50000
b101 !
0%
#50985
11
#57258
1,
#57263
0-
#60000
b111 !
b110 !
1%
#60975
10
#60985
01
#61301
1"
#61426
1#
#61431
1$
#70000
b111 !
0%
#70985
11
#77258
0,
#77263
1-
#80000
b1111 !
b1011 !
b1001 !
b1000 !
1%
#80975
00
#80984
0/
#80985
01
#80995
1.
#81301
0"
#81426
0#
#81431
0$
#90000
b1001 !
0%
#90985
11
#100000
b1011 !
b1010 !
1%
#100975
10
#100985
01
#107252
1,
#107258
0-
#110000
b1011 !
0%
#110985
11
#111295
1"
#111421
1#
#111426
1$
#117258
0,
#117263
1-
#120000
b1111 !
b1101 !
b1100 !
1%
#120975
00
#120984
1/
#120985
01
#121301
0"
#121426
0#
#121431
0$
#130000
b1101 !
0%
#130985
11
#137258
1,
#137263
0-
#140000
b1111 !
b1110 !
1%
#140975
10
#140985
01
#141301
1"
#141426
1#
#141431
1$
#150000
b1111 !
0%
#150985
11
#157258
0,
#157263
1-
#160000
b111 !
b11 !
b1 !
b0 !
1%
#160975
00
#160984
0/
#160985
01
#160995
0.
#161301
0"
#161426
0#
#161431
0$
