element_base/lab/4lab/src/right/lab4_regJK/simulation/qsim/lab4_regJK.msim.vcd
$comment
	File created using the following command:
		vcd file lab4_regJK.msim.vcd -direction
$end
$date
	Thu Jan 23 10:19:13 2025
$end
$version
	ModelSim Version 10.1d
$end
$timescale
	1ps
$end
$scope module lab4_regJK_vlg_vec_tst $end
$var reg 1 ! clk $end
$var reg 1 " D0 $end
$var reg 1 # D1 $end
$var reg 1 $ D2 $end
$var reg 1 % D3 $end
$var reg 1 & OE_L $end
$var reg 1 ' Set $end
$var wire 1 ( Q0 $end
$var wire 1 ) Q1 $end
$var wire 1 * Q2 $end
$var wire 1 + Q3 $end
$var wire 1 , sampler $end
$scope module i1 $end
$var wire 1 - gnd $end
$var wire 1 . vcc $end
$var wire 1 / unknown $end
$var tri1 1 0 devclrn $end
$var tri1 1 1 devpor $end
$var tri1 1 2 devoe $end
$var wire 1 3 Q0~output_o $end
$var wire 1 4 Q1~output_o $end
$var wire 1 5 Q2~output_o $end
$var wire 1 6 Q3~output_o $end
$var wire 1 7 clk~input_o $end
$var wire 1 8 clk~inputclkctrl_outclk $end
$var wire 1 9 D0~input_o $end
$var wire 1 : inst~0_combout $end
$var wire 1 ; Set~input_o $end
$var wire 1 < Set~inputclkctrl_outclk $end
$var wire 1 = inst~q $end
$var wire 1 > OE_L~input_o $end
$var wire 1 ? inst19~combout $end
$var wire 1 @ D1~input_o $end
$var wire 1 A inst1~0_combout $end
$var wire 1 B inst1~q $end
$var wire 1 C inst9~combout $end
$var wire 1 D D2~input_o $end
$var wire 1 E inst2~0_combout $end
$var wire 1 F inst2~q $end
$var wire 1 G inst10~combout $end
$var wire 1 H D3~input_o $end
$var wire 1 I inst3~0_combout $end
$var wire 1 J inst3~q $end
$var wire 1 K inst11~combout $end
$upscope $end
$upscope $end
$enddefinitions $end
#0
$dumpvars
0!
0"
0#
0$
0%
0&
1'
1(
1)
1*
1+
x,
0-
1.
x/
10
11
12
13
14
15
16
07
08
09
1:
1;
1<
0=
0>
1?
0@
1A
0B
1C
0D
1E
0F
1G
0H
1I
0J
1K
$end
#5000
1!
17
18
0,
#10000
1"
0!
19
07
08
1,
0:
#15000
1!
17
18
0,
#20000
1#
0"
0!
1@
09
07
08
1,
0A
1:
#25000
1!
17
18
0,
#30000
0'
1"
0!
0;
19
07
0<
08
1,
0:
#35000
1!
17
18
0,
1J
1F
0K
0G
06
05
0+
0*
#40000
1$
0#
0"
0!
1D
0@
09
07
08
1,
0E
1A
1:
#45000
1!
17
18
0,
0F
1B
1=
1G
0C
0?
15
04
03
1*
0)
0(
#50000
1"
0!
19
07
08
1,
0:
#55000
1!
17
18
0,
0=
1?
13
1(
#60000
1#
0"
0!
1@
09
07
08
1,
0A
1:
#65000
1!
17
18
0,
0B
1=
1C
0?
14
03
1)
0(
#70000
1"
0!
19
07
08
1,
0:
#75000
1!
17
18
0,
0=
1?
13
1(
#80000
1%
0$
0#
0"
0!
1H
0D
0@
09
07
08
1,
0I
1E
1A
1:
#85000
1!
17
18
0,
0J
1F
1B
1=
1K
0G
0C
0?
16
05
04
03
1+
0*
0)
0(
#90000
1"
0!
19
07
08
1,
0:
#95000
1!
17
18
0,
0=
1?
13
1(
#100000
1#
0"
0!
1@
09
07
08
1,
0A
1:
#105000
1!
17
18
0,
0B
1=
1C
0?
14
03
1)
0(
#110000
1'
1"
0!
1;
19
07
1<
08
1,
0:
0=
0F
1?
1G
13
15
1(
1*
#115000
1!
17
18
0,
#120000
1$
0#
0'
0"
0!
1D
0@
0;
09
07
0<
08
1,
0E
1A
1:
#125000
1!
17
18
0,
1B
1=
0C
0?
04
03
0)
0(
#130000
1"
0!
19
07
08
1,
0:
#135000
1!
17
18
0,
0=
1?
13
1(
#140000
1#
0"
0!
1@
09
07
08
1,
0A
1:
#145000
1!
17
18
0,
0B
1=
1C
0?
14
03
1)
0(
#150000
1"
0!
19
07
08
1,
0:
#155000
1!
17
18
0,
0=
1?
13
1(
#160000
1&
0%
0$
0#
0"
0!
1>
0H
0D
0@
09
07
08
1,
1I
1E
1A
1:
0K
0G
0C
0?
06
05
04
03
0+
0*
0)
0(
#165000
1!
17
18
0,
1J
1F
1B
1=
#170000
1"
0!
19
07
08
1,
0:
#175000
1!
17
18
0,
0=
#180000
1#
0"
0!
1@
09
07
08
1,
0A
1:
#185000
1!
17
18
0,
0B
1=
#190000
1"
0!
19
07
08
1,
0:
#195000
1!
17
18
0,
0=
#200000
1$
0#
0"
0!
1D
0@
09
07
08
1,
0E
1A
1:
#205000
1!
17
18
0,
0F
1B
1=
#210000
1"
0!
19
07
08
1,
0:
#215000
1!
17
18
0,
0=
#220000
1#
0"
0!
1@
09
07
08
1,
0A
1:
#225000
1!
17
18
0,
0B
1=
#230000
1"
0!
19
07
08
1,
0:
#235000
1!
17
18
0,
0=
#240000
1'
1%
0$
0#
0"
0!
1;
1H
0D
0@
09
07
1<
08
1,
0I
1E
1A
1:
0J
#245000
1!
17
18
0,
#250000
1"
0!
19
07
08
1,
0:
#255000
1!
17
18
0,
#260000
0&
1#
0"
0!
0>
1@
09
07
08
1,
0A
1:
1K
1G
1C
1?
16
15
14
13
1+
1*
1)
1(
#265000
1!
17
18
0,
#270000
1"
0!
19
07
08
1,
0:
#275000
1!
17
18
0,
#280000
0'
1$
0#
0"
0!
0;
1D
0@
09
07
0<
08
1,
0E
1A
1:
#285000
1!
17
18
0,
1B
1=
0C
0?
04
03
0)
0(
#290000
1"
0!
19
07
08
1,
0:
#295000
1!
17
18
0,
0=
1?
13
1(
#300000
1#
0"
0!
1@
09
07
08
1,
0A
1:
#305000
1!
17
18
0,
0B
1=
1C
0?
14
03
1)
0(
#310000
1"
0!
19
07
08
1,
0:
#315000
1!
17
18
0,
0=
1?
13
1(
