element_base/lab/3lab/src/right/rs_trig/simulation/qsim/rs_trig.msim.vcd
$comment
	File created using the following command:
		vcd file rs_trig.msim.vcd -direction
$end
$date
	Mon Nov 11 22:01:50 2024
$end
$version
	ModelSim Version 10.1d
$end
$timescale
	1ps
$end
$scope module rs_trig_vlg_vec_tst $end
$var reg 1 ! clk $end
$var wire 1 " C $end
$var wire 1 # CLRN $end
$var wire 1 $ PRN $end
$var wire 1 % Q_rs $end
$var wire 1 & R $end
$var wire 1 ' S $end
$var wire 1 ( X [3] $end
$var wire 1 ) X [2] $end
$var wire 1 * X [1] $end
$var wire 1 + X [0] $end
$var wire 1 , sampler $end
$scope module i1 $end
$var wire 1 - gnd $end
$var wire 1 . vcc $end
$var wire 1 / unknown $end
$var tri1 1 0 devclrn $end
$var tri1 1 1 devpor $end
$var tri1 1 2 devoe $end
$var wire 1 3 clk~combout $end
$var wire 1 4 clk~clkctrl_outclk $end
$var wire 1 5 inst2|LPM_COUNTER_component|auto_generated|counter_comb_bita0~COUT $end
$var wire 1 6 inst2|LPM_COUNTER_component|auto_generated|counter_comb_bita1~combout $end
$var wire 1 7 inst2|LPM_COUNTER_component|auto_generated|counter_comb_bita1~COUT $end
$var wire 1 8 inst2|LPM_COUNTER_component|auto_generated|counter_comb_bita2~combout $end
$var wire 1 9 inst2|LPM_COUNTER_component|auto_generated|counter_comb_bita2~COUT $end
$var wire 1 : inst2|LPM_COUNTER_component|auto_generated|counter_comb_bita3~combout $end
$var wire 1 ; inst1|LPM_DECODE_component|auto_generated|w_anode122w[3]~0_combout $end
$var wire 1 < inst7~0_combout $end
$var wire 1 = inst~1_combout $end
$var wire 1 > inst2|LPM_COUNTER_component|auto_generated|counter_comb_bita0~combout $end
$var wire 1 ? inst5~0_combout $end
$var wire 1 @ inst8~0_combout $end
$var wire 1 A inst~3_combout $end
$var wire 1 B inst~0_combout $end
$var wire 1 C inst~_emulated_regout $end
$var wire 1 D inst~2_combout $end
$var wire 1 E inst2|LPM_COUNTER_component|auto_generated|safe_q [3] $end
$var wire 1 F inst2|LPM_COUNTER_component|auto_generated|safe_q [2] $end
$var wire 1 G inst2|LPM_COUNTER_component|auto_generated|safe_q [1] $end
$var wire 1 H inst2|LPM_COUNTER_component|auto_generated|safe_q [0] $end
$upscope $end
$upscope $end
$enddefinitions $end
#0
$dumpvars
1!
0"
1#
0$
1%
0&
0'
0+
0*
0)
0(
x,
0-
1.
x/
10
11
12
13
14
05
06
17
08
09
0:
0;
1<
1=
1>
0?
0@
0A
1B
0C
1D
0H
0G
0F
0E
$end
#5000
0!
03
04
0,
#10000
1!
13
14
1,
1H
1?
15
0>
1+
1A
16
1&
#15000
0!
03
04
0,
#20000
1!
13
14
1,
0H
1G
05
1>
07
06
0+
1*
1"
17
16
18
08
#25000
0!
03
04
0,
#30000
1!
13
14
1,
1H
0<
15
0>
1+
0B
07
06
1$
18
#35000
0!
03
04
0,
#40000
1!
13
14
1,
0H
1F
0G
05
1>
19
08
17
16
0+
1)
0*
0"
06
1:
09
18
0:
#45000
0!
03
04
0,
#50000
1!
13
14
1,
1H
15
0>
1+
16
#55000
0!
03
04
0,
#60000
1!
13
14
1,
0H
1G
05
1>
07
06
0+
1*
1"
17
16
19
08
09
18
1:
0:
1C
0D
0%
#65000
0!
03
04
0,
#70000
1!
13
14
1,
1H
0?
15
0>
1+
07
06
0&
19
08
1:
#75000
0!
03
04
0,
#80000
1!
13
14
1,
0H
1E
0F
0G
05
1>
0:
09
18
17
16
0+
1(
0)
0*
0"
06
1:
08
#85000
0!
03
04
0,
#90000
1!
13
14
1,
1H
1@
15
0>
1+
0A
16
1'
#95000
0!
03
04
0,
#100000
1!
13
14
1,
0H
1G
05
1>
07
06
0+
1*
1"
17
16
18
08
0C
1D
1%
#105000
0!
03
04
0,
#110000
1!
13
14
1,
1H
1;
15
0>
1+
0D
1B
0=
07
06
0#
1A
18
0%
#115000
0!
03
04
0,
#120000
1!
13
14
1,
0H
1F
0G
0;
05
1>
19
08
17
16
0+
1)
0*
0"
0B
06
0:
09
18
1#
1:
#125000
0!
03
04
0,
#130000
1!
13
14
1,
1H
0@
15
0>
1+
0A
16
0'
#135000
0!
03
04
0,
#140000
1!
13
14
1,
0H
1G
05
1>
07
06
0+
1*
1"
17
16
19
08
09
18
0:
1:
#145000
0!
03
04
0,
#150000
1!
13
14
1,
1H
15
0>
1+
07
06
19
08
0:
#155000
0!
03
04
0,
#160000
1!
13
14
1,
0H
0E
0F
0G
1<
05
1>
1:
09
18
17
16
0+
0(
0)
0*
0"
1D
1B
1=
06
0:
08
0$
1%
