element_base/lab/3lab/src/not right/jk_trig/simulation/qsim/jk_trig.msim.vcd
$comment
	File created using the following command:
		vcd file jk_trig.msim.vcd -direction
$end
$date
	Mon Nov 11 22:23:17 2024
$end
$version
	ModelSim Version 10.1d
$end
$timescale
	1ps
$end
$scope module jk_trig_vlg_vec_tst $end
$var reg 1 ! clk $end
$var wire 1 " C $end
$var wire 1 # J $end
$var wire 1 $ K $end
$var wire 1 % Q $end
$var wire 1 & X [3] $end
$var wire 1 ' X [2] $end
$var wire 1 ( X [1] $end
$var wire 1 ) X [0] $end
$var wire 1 * sampler $end
$scope module i1 $end
$var wire 1 + gnd $end
$var wire 1 , vcc $end
$var wire 1 - unknown $end
$var tri1 1 . devclrn $end
$var tri1 1 / devpor $end
$var tri1 1 0 devoe $end
$var wire 1 1 clk~combout $end
$var wire 1 2 clk~clkctrl_outclk $end
$var wire 1 3 inst5|LPM_COUNTER_component|auto_generated|counter_comb_bita0~combout $end
$var wire 1 4 inst5|LPM_COUNTER_component|auto_generated|counter_comb_bita0~COUT $end
$var wire 1 5 inst5|LPM_COUNTER_component|auto_generated|counter_comb_bita1~combout $end
$var wire 1 6 inst5|LPM_COUNTER_component|auto_generated|counter_comb_bita1~COUT $end
$var wire 1 7 inst5|LPM_COUNTER_component|auto_generated|counter_comb_bita2~combout $end
$var wire 1 8 inst5|LPM_COUNTER_component|auto_generated|counter_comb_bita2~COUT $end
$var wire 1 9 inst5|LPM_COUNTER_component|auto_generated|counter_comb_bita3~combout $end
$var wire 1 : inst6~0_combout $end
$var wire 1 ; inst7~0_combout $end
$var wire 1 < inst4~0_combout $end
$var wire 1 = inst4~regout $end
$var wire 1 > inst5|LPM_COUNTER_component|auto_generated|safe_q [3] $end
$var wire 1 ? inst5|LPM_COUNTER_component|auto_generated|safe_q [2] $end
$var wire 1 @ inst5|LPM_COUNTER_component|auto_generated|safe_q [1] $end
$var wire 1 A inst5|LPM_COUNTER_component|auto_generated|safe_q [0] $end
$upscope $end
$upscope $end
$enddefinitions $end
#0
$dumpvars
1!
0"
1#
0$
0%
0)
0(
0'
0&
x*
0+
1,
x-
1.
1/
10
11
12
13
04
05
16
07
08
09
0:
1;
1<
0=
0A
0@
0?
0>
$end
#5000
0!
01
02
0*
#10000
1!
11
12
1*
1A
0;
1:
14
03
1)
0<
15
1$
0#
#15000
0!
01
02
0*
#20000
1!
11
12
1*
1@
0A
06
05
04
13
1(
1"
0)
17
16
15
07
#25000
0!
01
02
0*
#30000
1!
11
12
1*
1A
14
03
1)
06
05
17
#35000
0!
01
02
0*
#40000
1!
11
12
1*
1?
0@
0A
1;
0:
18
07
16
15
04
13
1'
0(
0"
0)
1<
19
08
17
05
0$
1#
09
#45000
0!
01
02
0*
#50000
1!
11
12
1*
1A
0;
14
03
1)
15
1$
#55000
0!
01
02
0*
#60000
1!
11
12
1*
1@
0A
06
05
04
13
1(
1"
0)
18
07
16
15
19
08
17
09
1=
0<
1%
#65000
0!
01
02
0*
#70000
1!
11
12
1*
1A
14
03
1)
06
05
18
07
19
#75000
0!
01
02
0*
#80000
1!
11
12
1*
1>
0?
0@
0A
1:
09
08
17
16
15
04
13
1&
0'
0(
0"
0)
19
07
05
0#
#85000
0!
01
02
0*
#90000
1!
11
12
1*
1A
0:
14
03
1)
15
1#
#95000
0!
01
02
0*
#100000
1!
11
12
1*
1@
0A
06
05
04
13
1(
1"
0)
17
16
15
07
0=
1<
0%
#105000
0!
01
02
0*
#110000
1!
11
12
1*
1A
1:
14
03
1)
0<
06
05
0#
17
#115000
0!
01
02
0*
#120000
1!
11
12
1*
1?
0@
0A
0:
18
07
16
15
04
13
1'
0(
0"
0)
1<
09
08
17
05
1#
19
#125000
0!
01
02
0*
#130000
1!
11
12
1*
1A
1;
1:
14
03
1)
0<
15
0$
0#
#135000
0!
01
02
0*
#140000
1!
11
12
1*
1@
0A
06
05
04
13
1(
1"
0)
18
07
16
15
09
08
17
19
#145000
0!
01
02
0*
#150000
1!
11
12
1*
1A
0:
14
03
1)
1<
06
05
1#
18
07
09
#155000
0!
01
02
0*
#160000
1!
11
12
1*
0>
0?
0@
0A
19
08
17
16
15
04
13
0&
0'
0(
0"
0)
09
07
05
